08_flow_control/dump.vcd
$date
	Sun May 03 21:50:47 2026
$end
$version
	Icarus Verilog
$end
$timescale
	1s
$end
$scope module testbench $end
$var wire 1 ! down_first $end
$var wire 1 " up_valid $end
$var wire 1 # up_ready $end
$var wire 1 $ up_last $end
$var wire 1 % up_first $end
$var wire 8 & up_data [7:0] $end
$var wire 1 ' down_valid $end
$var wire 1 ( down_last $end
$var wire 8 ) down_data [7:0] $end
$var parameter 1 * check_first $end
$var parameter 1 + check_last $end
$var parameter 1 , use_backpressure $end
$var parameter 32 - width $end
$var reg 1 . clock $end
$var reg 33 / down_count [32:0] $end
$var reg 1 0 down_ready $end
$var reg 8 1 expected_data [7:0] $end
$var reg 1 2 expected_first $end
$var reg 1 3 expected_last $end
$var reg 33 4 n_cycles [32:0] $end
$var reg 1 5 reset $end
$var reg 33 6 up_count [32:0] $end
$var reg 1 7 up_enable $end
$var reg 1 8 was_reset $end
$var reg 32 9 cycle [31:0] $end
$var reg 1 : err $end
$scope module inst_conv_fst_to_lst_with_fc $end
$var wire 1 . clock $end
$var wire 8 ; down_data [7:0] $end
$var wire 1 ( down_last $end
$var wire 1 0 down_ready $end
$var wire 1 ' down_valid $end
$var wire 1 5 reset $end
$var wire 1 # up_ready $end
$var wire 1 " up_valid $end
$var wire 1 % up_first $end
$var wire 8 < up_data [7:0] $end
$var parameter 32 = width $end
$var reg 8 > data [7:0] $end
$var reg 1 ? flag_buf $end
$upscope $end
$scope module upstream $end
$var wire 1 . clock $end
$var wire 1 @ ready $end
$var wire 1 5 reset $end
$var wire 1 7 up_enable $end
$var wire 1 # up_ready $end
$var wire 1 " up_valid $end
$var wire 1 $ up_last $end
$var wire 1 % up_first $end
$var wire 8 A up_data [7:0] $end
$var parameter 32 B width $end
$var reg 8 C data [7:0] $end
$var reg 1 D first $end
$var reg 1 E last $end
$var reg 1 F valid $end
$upscope $end
$scope begin $ivl_for_loop0 $end
$var integer 32 G i [31:0] $end
$upscope $end
$upscope $end
$enddefinitions $end
$comment Show the parameter values. $end
$dumpall
b1000 B
b1000 =
b1000 -
1,
1+
0*
$end
#0
$dumpvars
b0 G
xF
xE
xD
bx C
bx A
x@
x?
bx >
bx <
bx ;
0:
b0 9
08
17
bx 6
x5
bx 4
x3
x2
bx 1
x0
bx /
0.
bx )
x(
x'
bx &
x%
x$
x#
x"
z!
$end
#5
00
b1 9
1.
#10
0.
#15
b10 9
10
1.
#20
0.
#25
b11 9
15
1.
#30
0.
#35
1@
1#
0'
b0 /
b0 6
b0 4
b100 9
b1000001 C
0E
1D
0"
0F
0?
b0 )
b0 ;
b0 >
18
1.
#40
0.
#45
b101 9
1.
#50
0.
#55
05
b110 9
1E
1.
#60
0.
#65
b111 9
b1 4
1.
#70
0.
#75
b10 4
b1000 9
1.
#80
0.
#85
00
b1001 9
b11 4
1.
#90
0.
#95
1(
1%
1$
b1000001 &
b1000001 <
b1000001 A
b100 4
b1010 9
10
1"
1F
1.
#100
0.
#105
0@
0#
x(
x%
x$
bx &
bx <
bx A
1?
b1000001 )
b1000001 ;
b1000001 >
0"
0F
00
b1011 9
b1 6
b101 4
1.
#110
0.
#115
b110 4
b1100 9
1.
#120
0.
#125
1(
1%
1$
b1000001 &
b1000001 <
b1000001 A
1'
1"
1F
b1101 9
b111 4
1.
#130
0.
#135
1@
1#
b1000 4
b1110 9
10
1.
#140
0.
#145
0@
0#
b1000110 &
b1000110 <
b1000110 A
b1000110 C
00
b1111 9
b1 /
b10 6
b1001 4
12
13
b1000001 1
1.
#150
0.
#155
1@
1#
b1010 4
b10000 9
10
1.
#160
0.
#165
0@
0#
b1010110 &
b1010110 <
b1010110 A
0$
b1000110 )
b1000110 ;
b1000110 >
b1010110 C
0E
00
b10001 9
b10 /
b11 6
b1011 4
1.
#170
0.
#175
1@
1#
b1100 4
b10010 9
10
1.
#180
0.
#185
0@
0#
b1000101 &
b1000101 <
b1000101 A
1$
0(
0%
b1010110 )
b1010110 ;
b1010110 >
b1000101 C
1E
0D
00
b10011 9
b11 /
b100 6
b1101 4
b1000110 1
1.
#190
0.
#195
1@
1#
b1110 4
b10100 9
10
1.
#200
0.
#205
b1001111 &
b1001111 <
b1001111 A
0$
1(
1%
b1000101 )
b1000101 ;
b1000101 >
b1001111 C
0E
1D
b10101 9
b100 /
b101 6
b1111 4
03
b1010110 1
1.
#210
0.
#215
0@
0#
b1001110 &
b1001110 <
b1001110 A
0(
0%
b101 /
b110 6
b10000 4
b10110 9
00
b1001110 C
0D
b1001111 )
b1001111 ;
b1001111 >
02
13
b1000101 1
1.
#220
0.
#225
b10111 9
b10001 4
1.
#230
0.
#235
b10010 4
b11000 9
1.
#240
0.
#245
b11001 9
b10011 4
1.
#250
0.
#255
1@
1#
b10100 4
b11010 9
10
1.
#260
0.
#265
0@
0#
x(
x%
x$
bx &
bx <
bx A
0'
b1001110 )
b1001110 ;
b1001110 >
b1011001 C
1E
0"
0F
00
b11011 9
b110 /
b111 6
b10101 4
12
03
b1001111 1
1.
#270
0.
#275
b10110 4
b11100 9
1.
#280
0.
#285
0(
0%
1$
b1011001 &
b1011001 <
b1011001 A
1'
1"
1F
b11101 9
b10111 4
1.
#290
0.
#295
b11000 4
b11110 9
1.
#300
0.
#305
1@
1#
10
b11111 9
b11001 4
1.
#310
0.
#315
b1010010 &
b1010010 <
b1010010 A
0$
1(
1%
b111 /
b1000 6
b11010 4
b100000 9
b1010010 C
0E
1D
b1011001 )
b1011001 ;
b1011001 >
02
b1001110 1
1.
#320
0.
#325
0@
0#
b1011010 &
b1011010 <
b1011010 A
0(
0%
b1010010 )
b1010010 ;
b1010010 >
b1011010 C
0D
00
b100001 9
b1000 /
b1001 6
b11011 4
13
b1011001 1
1.
#330
0.
#335
1@
1#
b11100 4
b100010 9
10
1.
#340
0.
#345
0@
0#
x(
x%
x$
bx &
bx <
bx A
0'
b1011010 )
b1011010 ;
b1011010 >
b1010101 C
0"
0F
00
b100011 9
b1001 /
b1010 6
b11101 4
12
03
b1010010 1
1.
#350
0.
#355
b11110 4
b100100 9
10
1.
#360
0.
#365
1@
1#
0(
0%
0$
b1010101 &
b1010101 <
b1010101 A
1'
1"
1F
b100101 9
b11111 4
1.
#370
0.
#375
0@
0#
b1000100 &
b1000100 <
b1000100 A
b1010 /
b1011 6
b100000 4
b100110 9
00
b1000100 C
b1010101 )
b1010101 ;
b1010101 >
02
b1011010 1
1.
#380
0.
#385
1@
1#
10
b100111 9
b100001 4
1.
#390
0.
#395
0@
0#
b1001110 &
b1001110 <
b1001110 A
b1011 /
b1100 6
b100010 4
b101000 9
00
b1001110 C
b1000100 )
b1000100 ;
b1000100 >
b1010101 1
1.
#400
0.
#405
b101001 9
b100011 4
1.
#410
0.
#415
1@
1#
b100100 4
b101010 9
10
1.
#420
0.
#425
b1010011 &
b1010011 <
b1010011 A
1$
b1001110 )
b1001110 ;
b1001110 >
b1010011 C
1E
b101011 9
b1100 /
b1101 6
b100101 4
b1000100 1
1.
#430
0.
#435
0@
0#
x(
x%
x$
bx &
bx <
bx A
0'
b1101 /
b1110 6
b100110 4
b101100 9
b1001011 C
0E
1D
0"
0F
b1010011 )
b1010011 ;
b1010011 >
b1001110 1
1.
#440
0.
#445
00
b101101 9
b100111 4
1.
#450
0.
#455
b101000 4
b101110 9
10
1.
#460
0.
#465
00
b101111 9
b101001 4
1.
#470
0.
#475
1(
1%
0$
b1001011 &
b1001011 <
b1001011 A
1'
b101010 4
b110000 9
1"
1F
1.
#480
0.
#485
b110001 9
b101011 4
1.
#490
0.
#495
b101100 4
b110010 9
1.
#500
0.
#505
b110011 9
b101101 4
1.
#510
0.
#515
1@
1#
b101110 4
b110100 9
10
1.
#520
0.
#525
b1000101 &
b1000101 <
b1000101 A
0(
0%
b1001011 )
b1001011 ;
b1001011 >
b1000101 C
0D
b110101 9
b1110 /
b1111 6
b101111 4
13
b1010011 1
1.
#530
0.
#535
0@
0#
x(
x%
x$
bx &
bx <
bx A
0'
b1111 /
b10000 6
b110000 4
b110110 9
00
b1001011 C
0"
0F
b1000101 )
b1000101 ;
b1000101 >
12
03
b1001011 1
1.
#540
0.
#545
0(
0%
0$
b1001011 &
b1001011 <
b1001011 A
1'
1"
1F
b110111 9
b110001 4
1.
#550
0.
#555
1@
1#
b110010 4
b111000 9
10
1.
#560
0.
#565
0@
0#
b1001100 &
b1001100 <
b1001100 A
b1001011 )
b1001011 ;
b1001011 >
b1001100 C
00
b111001 9
b10000 /
b10001 6
b110011 4
02
b1000101 1
1.
#570
0.
#575
1@
1#
b110100 4
b111010 9
10
1.
#580
0.
#585
0@
0#
b1010110 &
b1010110 <
b1010110 A
b1001100 )
b1001100 ;
b1001100 >
b1010110 C
00
b111011 9
b10001 /
b10010 6
b110101 4
b1001011 1
1.
#590
0.
#595
b110110 4
b111100 9
1.
#600
0.
#605
b111101 9
b110111 4
1.
#610
0.
#615
b111000 4
b111110 9
1.
#620
0.
#625
1@
1#
10
b111111 9
b111001 4
1.
#630
0.
#635
b1010010 &
b1010010 <
b1010010 A
b10010 /
b10011 6
b111010 4
b1000000 9
b1010010 C
b1010110 )
b1010110 ;
b1010110 >
b1001100 1
1.
#640
0.
#645
0@
0#
x(
x%
x$
bx &
bx <
bx A
0'
b1010010 )
b1010010 ;
b1010010 >
b1010100 C
1E
0"
0F
00
b1000001 9
b10011 /
b10100 6
b111011 4
b1010110 1
1.
#650
0.
#655
0(
0%
1$
b1010100 &
b1010100 <
b1010100 A
1'
b111100 4
b1000010 9
1"
1F
1.
#660
0.
#665
1@
1#
10
b1000011 9
b111101 4
1.
#670
0.
#675
b1011001 &
b1011001 <
b1011001 A
1(
1%
b10100 /
b10101 6
b111110 4
b1000100 9
b1011001 C
1D
b1010100 )
b1010100 ;
b1010100 >
b1010010 1
1.
#680
0.
#685
b1011000 &
b1011000 <
b1011000 A
b1011001 )
b1011001 ;
b1011001 >
b1011000 C
b1000101 9
b10101 /
b10110 6
b111111 4
13
b1010100 1
1.
#690
0.
#695
0@
0#
x(
x%
x$
bx &
bx <
bx A
0'
b10110 /
b10111 6
b1000000 4
b1000110 9
00
b1000100 C
0E
0"
0F
b1011000 )
b1011000 ;
b1011000 >
12
b1011001 1
1.
#700
0.
#705
10
b1000111 9
b1000001 4
1.
#710
0.
#715
1(
1%
0$
b1000100 &
b1000100 <
b1000100 A
1'
b1000010 4
b1001000 9
00
1"
1F
1.
#720
0.
#725
b1001001 9
b1000011 4
1.
#730
0.
#735
1@
1#
b1000100 4
b1001010 9
10
1.
#740
0.
#745
b1001111 &
b1001111 <
b1001111 A
1$
0(
0%
b1000100 )
b1000100 ;
b1000100 >
b1001111 C
1E
0D
b1001011 9
b10111 /
b11000 6
b1000101 4
b1011000 1
1.
#750
0.
#755
0@
0#
b1000010 &
b1000010 <
b1000010 A
0$
1(
1%
b11000 /
b11001 6
b1000110 4
b1001100 9
00
b1000010 C
0E
1D
b1001111 )
b1001111 ;
b1001111 >
03
b1000100 1
1.
#760
0.
#765
b1001101 9
b1000111 4
1.
#770
0.
#775
1@
1#
b1001000 4
b1001110 9
10
1.
#780
0.
#785
0@
0#
b1010111 &
b1010111 <
b1010111 A
1$
0(
0%
b1000010 )
b1000010 ;
b1000010 >
b1010111 C
1E
0D
00
b1001111 9
b11001 /
b11010 6
b1001001 4
02
13
b1001111 1
1.
#790
0.
#795
b1001010 4
b1010000 9
1.
#800
0.
#805
b1010001 9
b1001011 4
1.
#810
0.
#815
1@
1#
b1001100 4
b1010010 9
10
1.
#820
0.
#825
0@
0#
b1010101 &
b1010101 <
b1010101 A
0$
1(
1%
b1010111 )
b1010111 ;
b1010111 >
b1010101 C
0E
1D
00
b1010011 9
b11010 /
b11011 6
b1001101 4
12
03
b1000010 1
1.
#830
0.
#835
b1001110 4
b1010100 9
1.
#840
0.
#845
b1010101 9
b1001111 4
1.
#850
0.
#855
b1010000 4
b1010110 9
1.
#860
0.
#865
1@
1#
10
b1010111 9
b1010001 4
1.
#870
0.
#875
0@
0#
x(
x%
x$
bx &
bx <
bx A
0'
b11011 /
b11100 6
b1010010 4
b1011000 9
00
b1010100 C
0D
0"
0F
b1010101 )
b1010101 ;
b1010101 >
02
13
b1010111 1
1.
#880
0.
#885
1@
1#
0(
0%
0$
b1010100 &
b1010100 <
b1010100 A
1'
1"
1F
10
b1011001 9
b1010011 4
1.
#890
0.
#895
0@
0#
x(
x%
x$
bx &
bx <
bx A
0'
b11100 /
b11101 6
b1010100 4
b1011010 9
b1000101 C
0"
0F
b1010100 )
b1010100 ;
b1010100 >
12
03
b1010101 1
1.
#900
0.
#905
b1011011 9
b1010101 4
1.
#910
0.
#915
1@
1#
0(
0%
0$
b1000101 &
b1000101 <
b1000101 A
1'
b1010110 4
b1011100 9
1"
1F
1.
#920
0.
#925
b1001011 &
b1001011 <
b1001011 A
b1000101 )
b1000101 ;
b1000101 >
b1001011 C
b1011101 9
b11101 /
b11110 6
b1010111 4
02
b1010100 1
1.
#930
0.
#935
0@
0#
b1000110 &
b1000110 <
b1000110 A
b11110 /
b11111 6
b1011000 4
b1011110 9
00
b1000110 C
b1001011 )
b1001011 ;
b1001011 >
b1000101 1
1.
#940
0.
#945
b1011111 9
b1011001 4
1.
#950
0.
#955
b1011010 4
b1100000 9
1.
#960
0.
#965
b1100001 9
b1011011 4
1.
#970
0.
#975
1@
1#
b1011100 4
b1100010 9
10
1.
#980
0.
#985
b1001001 &
b1001001 <
b1001001 A
b1000110 )
b1000110 ;
b1000110 >
b1001001 C
b1100011 9
b11111 /
b100000 6
b1011101 4
b1001011 1
1.
#990
0.
#995
0@
0#
b1001000 &
b1001000 <
b1001000 A
b100000 /
b100001 6
b1011110 4
b1100100 9
00
b1001000 C
b1001001 )
b1001001 ;
b1001001 >
b1000110 1
1.
#1000
0.
#1005
b1100101 9
b1011111 4
1.
#1010
0.
#1015
1@
1#
b1100000 4
b1100110 9
10
1.
#1020
0.
#1025
0@
0#
x(
x%
x$
bx &
bx <
bx A
0'
b1001000 )
b1001000 ;
b1001000 >
b1010011 C
0"
0F
00
b1100111 9
b100001 /
b100010 6
b1100001 4
b1001001 1
1.
#1030
0.
#1035
0(
0%
0$
b1010011 &
b1010011 <
b1010011 A
1'
b1100010 4
b1101000 9
1"
1F
1.
#1040
0.
#1045
b1101001 9
b1100011 4
1.
#1050
0.
#1055
b1100100 4
b1101010 9
07
1.
#1060
0.
#1065
1@
1#
10
b1101011 9
b1100101 4
1.
#1070
0.
#1075
0@
0#
x(
x%
x$
bx &
bx <
bx A
0'
b100010 /
b100011 6
b1100110 4
b1101100 9
00
b1010100 C
0"
0F
b1010011 )
b1010011 ;
b1010011 >
b1001000 1
1.
#1080
0.
#1085
b1101101 9
b1100111 4
1.
#1090
0.
#1095
b1101000 4
b1101110 9
10
1.
#1100
0.
#1105
00
b1101111 9
b1101001 4
1.
#1110
0.
#1115
b1101010 4
b1110000 9
10
1.
#1120
0.
#1125
b1110001 9
b1101011 4
1.
#1130
0.
#1135
b1101100 4
b1110010 9
1.
#1140
0.
#1145
b1110011 9
b1101101 4
1.
#1150
0.
#1155
b1101110 4
b1110100 9
1.
#1160
0.
#1165
b1110101 9
b1101111 4
1.
#1170
0.
#1175
b1110000 4
b1110110 9
00
1.
#1180
0.
#1185
10
b1110111 9
b1110001 4
1.
#1190
0.
#1195
b1110010 4
b1111000 9
1.
#1200
0.
#1205
b1111001 9
b1110011 4
1.
#1210
0.
#1215
b1110100 4
b1111010 9
1.
#1220
0.
#1225
00
b1111011 9
b1110101 4
1.
#1230
0.
#1235
b1110110 4
b1111100 9
1.
#1240
0.
#1245
10
b1111101 9
b1110111 4
1.
#1250
0.
#1255
b1111000 4
b1111110 9
1.
#1260
0.
#1265
00
b1111111 9
b1111001 4
1.
#1270
0.
#1275
b1111010 4
b10000000 9
1.
#1280
0.
#1285
10
b10000001 9
b1111011 4
1.
#1290
0.
#1295
b1111100 4
b10000010 9
00
1.
#1300
0.
#1305
10
b10000011 9
b1111101 4
1.
#1310
0.
#1315
b1111110 4
b10000100 9
1.
#1320
0.
#1325
b10000101 9
b1111111 4
1.
#1330
0.
#1335
b10000000 4
b10000110 9
1.
#1340
0.
#1345
b10000111 9
b10000001 4
1.
#1350
0.
#1355
b10000010 4
b10001000 9
00
1.
#1360
0.
#1365
b10001001 9
b10000011 4
1.
#1370
0.
#1375
b10000100 4
b10001010 9
10
1.
#1380
0.
#1385
b10001011 9
b10000101 4
1.
#1390
0.
#1395
b10000110 4
b10001100 9
1.
#1400
0.
#1405
b10001101 9
b10000111 4
1.
#1410
0.
#1415
b10001000 4
b10001110 9
1.
#1420
0.
#1425
b10001111 9
b10001001 4
1.
#1430
0.
#1435
b10001010 4
b10010000 9
1.
#1440
0.
#1445
b10010001 9
b10001011 4
1.
#1450
0.
#1455
b10001100 4
b10010010 9
00
1.
#1460
0.
#1465
b10010011 9
b10001101 4
1.
#1470
0.
#1475
b10001110 4
b10010100 9
1.
#1480
0.
#1485
b10010101 9
b10001111 4
1.
#1490
0.
#1495
b10010000 4
b10010110 9
10
1.
#1500
0.
#1505
00
b10010111 9
b10010001 4
1.
#1510
0.
#1515
b10010010 4
b10011000 9
1.
#1520
0.
#1525
b10011001 9
b10010011 4
1.
#1530
0.
#1535
b10010100 4
b10011010 9
1.
#1540
0.
#1545
b10011011 9
b10010101 4
1.
#1550
0.
#1555
b10010110 4
b10011100 9
1.
#1560
0.
#1565
b10011101 9
b10010111 4
1.
#1570
0.
#1575
b10011000 4
b10011110 9
10
1.
#1580
0.
#1585
b10011111 9
b10011001 4
1.
#1590
0.
#1595
b10011010 4
b10100000 9
00
1.
#1600
0.
#1605
10
b10100001 9
b10011011 4
1.
#1610
0.
#1615
b10011100 4
b10100010 9
00
1.
#1620
0.
#1625
10
b10100011 9
b10011101 4
1.
#1630
0.
#1635
b10011110 4
b10100100 9
1.
#1640
0.
#1645
b10100101 9
b10011111 4
1.
#1650
0.
#1655
b10100000 4
b10100110 9
00
1.
#1660
0.
#1665
b10100111 9
b10100001 4
1.
#1670
0.
#1675
b10100010 4
b10101000 9
1.
#1680
0.
#1685
b10101001 9
b10100011 4
1.
#1690
0.
#1695
b10100100 4
b10101010 9
10
1.
#1700
0.
#1705
b10101011 9
b10100101 4
1.
#1710
0.
#1715
b10100110 4
b10101100 9
1.
#1720
0.
#1725
b10101101 9
b10100111 4
1.
#1730
0.
#1735
b10101000 4
b10101110 9
1.
#1740
0.
#1745
b10101111 9
b10101001 4
1.
#1750
0.
#1755
b10101010 4
b10110000 9
1.
#1760
0.
#1765
00
b10110001 9
b10101011 4
1.
#1770
0.
#1775
b10101100 4
b10110010 9
1.
#1780
0.
#1785
10
b10110011 9
b10101101 4
1.
#1790
0.
#1795
b10101110 4
b10110100 9
00
1.
#1800
0.
#1805
b10110101 9
b10101111 4
1.
#1810
0.
#1815
b10110000 4
b10110110 9
1.
#1820
0.
#1825
b10110111 9
b10110001 4
1.
#1830
0.
#1835
b10110010 4
b10111000 9
1.
#1840
0.
#1845
b10111001 9
b10110011 4
1.
#1850
0.
#1855
b10110100 4
b10111010 9
10
1.
#1860
0.
#1865
00
b10111011 9
b10110101 4
1.
#1870
0.
#1875
b10110110 4
b10111100 9
1.
#1880
0.
#1885
10
b10111101 9
b10110111 4
1.
#1890
0.
#1895
b10111000 4
b10111110 9
1.
#1900
0.
#1905
00
b10111111 9
b10111001 4
1.
#1910
0.
#1915
b10111010 4
b11000000 9
1.
#1920
0.
#1925
b11000001 9
b10111011 4
1.
#1930
0.
#1935
b10111100 4
b11000010 9
1.
#1940
0.
#1945
10
b11000011 9
b10111101 4
1.
#1950
0.
#1955
b10111110 4
b11000100 9
1.
#1960
0.
#1965
00
b11000101 9
b10111111 4
1.
#1970
0.
#1975
b11000000 4
b11000110 9
10
1.
#1980
0.
#1985
b11000111 9
b11000001 4
1.
#1990
0.
#1995
b11000010 4
b11001000 9
1.
#2000
0.
#2005
b11001001 9
b11000011 4
1.
#2010
0.
#2015
b11000100 4
b11001010 9
1.
#2020
0.
#2025
b11001011 9
b11000101 4
1.
#2030
0.
#2035
b11000110 4
b11001100 9
1.
#2040
0.
#2045
b11001101 9
b11000111 4
1.
#2050
0.
#2055
b11001000 4
b11001110 9
1.
