06_pipelining/dump.vcd
$date
	Sun May 03 18:10:34 2026
$end
$version
	Icarus Verilog
$end
$timescale
	1s
$end
$scope module testbench $end
$scope module tb_1 $end
$var event 1 ! finish $end
$var event 1 " all_combination_done $end
$var wire 4 # up_vlds [3:0] $end
$var wire 64 $ up_data [63:0] $end
$var wire 1 % down_vld $end
$var wire 16 & down_data [15:0] $end
$var parameter 32 ' data_ptr_width $end
$var parameter 32 ( n_inputs $end
$var parameter 32 ) width $end
$var reg 1 * clk $end
$var reg 16 + current_data [15:0] $end
$var reg 2 , data_ptr [1:0] $end
$var reg 15 - delays [14:0] $end
$var reg 1 . is_test_fail $end
$var reg 16 / res [15:0] $end
$var reg 16 0 res_expected [15:0] $end
$var reg 4 1 ring_one [3:0] $end
$var reg 1 2 rst $end
$var reg 1 3 running $end
$scope begin input_generator[0] $end
$var parameter 2 4 i $end
$scope module r_delay $end
$var event 1 5 delay_done $end
$var wire 1 * clk $end
$var wire 16 6 data_in [15:0] $end
$var wire 2 7 out_delay [1:0] $end
$var wire 1 2 rst $end
$var wire 1 8 vld_in $end
$var parameter 32 9 delay_width $end
$var parameter 32 : n_inputs $end
$var parameter 32 ; width $end
$var reg 16 < data_lock [15:0] $end
$var reg 16 = data_out [15:0] $end
$var reg 2 > delay [1:0] $end
$var reg 1 ? ready $end
$var reg 1 @ vld_out $end
$upscope $end
$upscope $end
$scope begin input_generator[1] $end
$var parameter 2 A i $end
$scope module r_delay $end
$var event 1 B delay_done $end
$var wire 1 * clk $end
$var wire 16 C data_in [15:0] $end
$var wire 2 D out_delay [1:0] $end
$var wire 1 2 rst $end
$var wire 1 E vld_in $end
$var parameter 32 F delay_width $end
$var parameter 32 G n_inputs $end
$var parameter 32 H width $end
$var reg 16 I data_lock [15:0] $end
$var reg 16 J data_out [15:0] $end
$var reg 2 K delay [1:0] $end
$var reg 1 L ready $end
$var reg 1 M vld_out $end
$upscope $end
$upscope $end
$scope begin input_generator[2] $end
$var parameter 3 N i $end
$scope module r_delay $end
$var event 1 O delay_done $end
$var wire 1 * clk $end
$var wire 16 P data_in [15:0] $end
$var wire 2 Q out_delay [1:0] $end
$var wire 1 2 rst $end
$var wire 1 R vld_in $end
$var parameter 32 S delay_width $end
$var parameter 32 T n_inputs $end
$var parameter 32 U width $end
$var reg 16 V data_lock [15:0] $end
$var reg 16 W data_out [15:0] $end
$var reg 2 X delay [1:0] $end
$var reg 1 Y ready $end
$var reg 1 Z vld_out $end
$upscope $end
$upscope $end
$scope begin input_generator[3] $end
$var parameter 3 [ i $end
$scope module r_delay $end
$var event 1 \ delay_done $end
$var wire 1 * clk $end
$var wire 16 ] data_in [15:0] $end
$var wire 2 ^ out_delay [1:0] $end
$var wire 1 2 rst $end
$var wire 1 _ vld_in $end
$var parameter 32 ` delay_width $end
$var parameter 32 a n_inputs $end
$var parameter 32 b width $end
$var reg 16 c data_lock [15:0] $end
$var reg 16 d data_out [15:0] $end
$var reg 2 e delay [1:0] $end
$var reg 1 f ready $end
$var reg 1 g vld_out $end
$upscope $end
$upscope $end
$scope module DUT $end
$var wire 1 * clk $end
$var wire 16 h down_data [15:0] $end
$var wire 1 % down_vld $end
$var wire 1 2 rst $end
$var wire 64 i up_data [63:0] $end
$var wire 4 j up_vlds [3:0] $end
$var parameter 32 k n_inputs $end
$var parameter 32 l width $end
$var reg 2 m data [1:0] $end
$var reg 2 n data_next [1:0] $end
$var reg 64 o data_reg [63:0] $end
$var reg 64 p data_reg_next [63:0] $end
$var reg 16 q down_data_reg [15:0] $end
$var reg 1 r down_vld_reg $end
$var reg 4 s flag [3:0] $end
$var reg 4 t flag_next [3:0] $end
$var integer 32 u i [31:0] $end
$upscope $end
$scope begin $ivl_for_loop0 $end
$var integer 32 v i [31:0] $end
$upscope $end
$scope begin $ivl_for_loop1 $end
$var integer 32 w l [31:0] $end
$upscope $end
$scope task reset $end
$upscope $end
$upscope $end
$scope module tb_2 $end
$var wire 1 x down_vld $end
$var wire 8 y down_data [7:0] $end
$var parameter 32 z TIMEOUT $end
$var parameter 32 { latency_width $end
$var parameter 4 | max_latency $end
$var parameter 4 } max_ptr $end
$var parameter 32 ~ n_inputs $end
$var parameter 32 !" ptr_width $end
$var parameter 32 "" width $end
$var reg 1 #" clk $end
$var reg 8 $" down_data_expected [7:0] $end
$var reg 10 %" pending [9:0] $end
$var reg 80 &" pending_data [79:0] $end
$var reg 80 '" pending_data_for_log [79:0] $end
$var reg 10 (" pending_for_log [9:0] $end
$var reg 40 )" pending_latency [39:0] $end
$var reg 4 *" ptr [3:0] $end
$var reg 1 +" rst $end
$var reg 80 ," up_data [79:0] $end
$var reg 10 -" up_vlds [9:0] $end
$var reg 32 ." counter [31:0] $end
$var reg 32 /" cycle [31:0] $end
$var reg 1 0" was_reset $end
$scope module i_put_in_order $end
$var wire 1 #" clk $end
$var wire 8 1" down_data [7:0] $end
$var wire 1 x down_vld $end
$var wire 1 +" rst $end
$var wire 80 2" up_data [79:0] $end
$var wire 10 3" up_vlds [9:0] $end
$var parameter 32 4" n_inputs $end
$var parameter 32 5" width $end
$var reg 4 6" data [3:0] $end
$var reg 4 7" data_next [3:0] $end
$var reg 80 8" data_reg [79:0] $end
$var reg 80 9" data_reg_next [79:0] $end
$var reg 8 :" down_data_reg [7:0] $end
$var reg 1 ;" down_vld_reg $end
$var reg 10 <" flag [9:0] $end
$var reg 10 =" flag_next [9:0] $end
$var integer 32 >" i [31:0] $end
$upscope $end
$scope begin $ivl_for_loop5 $end
$var integer 32 ?" i [31:0] $end
$upscope $end
$scope begin $ivl_for_loop6 $end
$var integer 32 @" i [31:0] $end
$upscope $end
$scope task receive $end
$upscope $end
$scope task run $end
$upscope $end
$scope task send $end
$var integer 32 A" n_reps [31:0] $end
$scope begin $ivl_for_loop2 $end
$var integer 32 B" rep [31:0] $end
$scope begin $ivl_for_loop3 $end
$var integer 32 C" i [31:0] $end
$upscope $end
$scope begin $ivl_for_loop4 $end
$var integer 32 D" i [31:0] $end
$upscope $end
$upscope $end
$upscope $end
$upscope $end
$upscope $end
$enddefinitions $end
$comment Show the parameter values. $end
$dumpall
b1000 5"
b1010 4"
b1000 ""
b100 !"
b1010 ~
b1001 }
b1010 |
b100 {
b10011100010000 z
b10000 l
b100 k
b10000 b
b100 a
b10 `
b11 [
b10000 U
b100 T
b10 S
b10 N
b10000 H
b100 G
b10 F
b1 A
b10000 ;
b100 :
b10 9
b0 4
b10000 )
b100 (
b10 '
$end
#0
$dumpvars
b0 D"
b0 C"
b0 B"
b0 A"
b0 @"
b0 ?"
b1010 >"
bx ="
bx <"
0;"
b0 :"
bx 9"
bx 8"
bx 7"
bx 6"
bx 3"
bx 2"
b0 1"
00"
b0 /"
b0 ."
bx -"
bx ,"
x+"
bx *"
bx )"
bx ("
bx '"
bx &"
bx %"
bx $"
0#"
b0 y
0x
b0 w
b0 v
b100 u
bx t
bx s
0r
b0 q
bx p
bx o
bx n
bx m
b0 j
b0 i
b0 h
0g
1f
b0 e
b0 d
b0 c
0_
b0 ^
bx ]
1\
0Z
1Y
b0 X
b0 W
b0 V
0R
b0 Q
bx P
1O
0M
1L
b0 K
b0 J
b0 I
0E
b0 D
bx C
1B
0@
1?
b0 >
b0 =
b0 <
08
b0 7
bx 6
15
03
x2
b0 1
bx 0
bx /
x.
b0 -
b0 ,
bx +
0*
b0 &
0%
b0 $
b0 #
1"
1!
$end
#500
b1 /"
1#"
#1000
0#"
#1500
b0 7"
b0 9"
b0 ="
b0 8"
b0 <"
b0 6"
b1010 >"
1+"
b10 /"
1#"
#2000
0#"
#2500
10"
b1010 >"
b11 /"
1#"
#3000
0#"
#3500
bx00000000 '"
b1 ("
b0 -"
b0 3"
b1010 D"
bx0010 )"
bx00000000 &"
b1 ."
b1010 C"
b1 %"
b1 *"
b1111101000 A"
0+"
b1010 >"
b100 /"
b1010 @"
b1010 ?"
1#"
#4000
0#"
#4500
bx0000000100000000 '"
b11 ("
b1010 D"
b10 *"
bx0000000100000000 &"
b10 ."
b11 %"
bx00010001 )"
b1010 C"
b101 /"
b1010 @"
b1010 ?"
b1 B"
1#"
#5000
0#"
#5500
b1 7"
1x
1;"
b100000000 9"
b10 ="
b1010 >"
bx000000100000000100000000 '"
b100 ("
bx0000000100000000 ,"
bx0000000100000000 2"
b11 -"
b11 3"
b1010 D"
b11 *"
bx000000100000000100000000 &"
b11 ."
b100 %"
bx011100000000 )"
b1010 C"
b110 /"
b1010 @"
b1010 ?"
b10 B"
1#"
#6000
0#"
#6500
b10 7"
b1 y
b1 1"
b1 :"
b11000000000000000100000000 9"
b1000 ="
b1010 >"
1x
1;"
b100000000 8"
b10 <"
b1 6"
bx00000011000000100000000100000000 '"
bx00000011xxxxxxxxxxxxxxxxxxxxxxxx ,"
bx00000011xxxxxxxxxxxxxxxxxxxxxxxx 2"
b1000 -"
b1000 3"
b1010 D"
b100 *"
bx00000011000000100000000100000000 &"
b100 ."
b100 %"
bx0000011000000000 )"
b1010 C"
b111 /"
b1010 @"
b1010 ?"
b0 $"
b11 B"
1#"
#7000
0#"
#7500
b1010 >"
b0 y
b0 1"
b0 :"
0x
0;"
b11000000000000000100000000 8"
b1000 <"
b10 6"
bx0000010000000011000000100000000100000000 '"
b10100 ("
bx ,"
bx 2"
b0 -"
b0 3"
b1010 D"
b101 *"
bx0000010000000011000000100000000100000000 &"
b101 ."
b10100 %"
bx01010000010100000000 )"
b1010 C"
b1000 /"
b1010 @"
b1010 ?"
b1 $"
b100 B"
1#"
#8000
0#"
#8500
bx000001010000010000000011000000100000000100000000 '"
b110100 ("
b1010 D"
b110 *"
bx000001010000010000000011000000100000000100000000 &"
b110 ."
b110100 %"
bx011001000000010000000000 )"
b1010 C"
b1001 /"
b1010 @"
b1010 ?"
b101 B"
1#"
#9000
0#"
#9500
b1010 D"
bx010100110000001100000000 )"
b1010 C"
b1010 /"
b1010 @"
b1010 ?"
b110 B"
1#"
#10000
0#"
#10500
bx00000110000001010000010000000011000000100000000100000000 '"
b1110100 ("
b1010 D"
b111 *"
bx00000110000001010000010000000011000000100000000100000000 &"
b111 ."
b1110100 %"
bx1001010000100000001000000000 )"
b1010 C"
b1011 /"
b1010 @"
b1010 ?"
b111 B"
1#"
#11000
0#"
#11500
bx0000011100000110000001010000010000000011000000100000000100000000 '"
b11110100 ("
b1010 D"
b1000 *"
bx0000011100000110000001010000010000000011000000100000000100000000 &"
b1000 ."
b11110100 %"
bx00111000001100010000000100000000 )"
b1010 C"
b1100 /"
b1010 @"
b1010 ?"
b1000 B"
1#"
#12000
0#"
#12500
b11 7"
b10 y
b10 1"
b10 :"
1x
1;"
b10000000011000000100000000100000000 9"
b11000 ="
b1010 >"
bx000010000000011100000110000001010000010000000011000000100000000100000000 '"
b111100000 ("
bx00000100xxxxxxxx00000010xxxxxxxxxxxxxxxx ,"
bx00000100xxxxxxxx00000010xxxxxxxxxxxxxxxx 2"
b10100 -"
b10100 3"
b1010 D"
b1001 *"
bx000010000000011100000110000001010000010000000011000000100000000100000000 &"
b1001 ."
b111100000 %"
bx100100100111001000000000000000000000 )"
b1010 C"
b1101 /"
b1010 @"
b1010 ?"
b1001 B"
1#"
#13000
0#"
#13500
b100 7"
b1001000000000000000000000000000000000000010000000011000000100000000100000000 9"
b1000010000 ="
b1010 >"
b11 y
b11 1"
b11 :"
1x
1;"
b10000000011000000100000000100000000 8"
b11000 <"
b11 6"
b1001000010000000011100000110000001010000010000000011000000100000000100000000 '"
b1001xxxxxxxxxxxxxxxxxxxxxxxxxxxxxxxxxxxxxxxxxxxxxxxxxxxxxxxxxxxxxxxxxxxxxxxx ,"
b1001xxxxxxxxxxxxxxxxxxxxxxxxxxxxxxxxxxxxxxxxxxxxxxxxxxxxxxxxxxxxxxxxxxxxxxxx 2"
b1000000000 -"
b1000000000 3"
b1010 D"
b0 *"
b1001000010000000011100000110000001010000010000000011000000100000000100000000 &"
b1010 ."
b111100000 %"
b100000010110000100000000000000000000 )"
b1010 C"
b1110 /"
b1010 @"
b1010 ?"
b10 $"
b1010 B"
1#"
#14000
0#"
#14500
b101 7"
b1001000000000000011100000000000001010000010000000011000000100000000100000000 9"
b1010100000 ="
b1010 >"
b100 y
b100 1"
b100 :"
1x
1;"
b1001000000000000000000000000000000000000010000000011000000100000000100000000 8"
b1000010000 <"
b100 6"
b1001000010000000011100000110000001010000010000000011000000100000000100001010 '"
b101000001 ("
bx00000111xxxxxxxx00000101xxxxxxxxxxxxxxxxxxxxxxxxxxxxxxxxxxxxxxxx ,"
bx00000111xxxxxxxx00000101xxxxxxxxxxxxxxxxxxxxxxxxxxxxxxxxxxxxxxxx 2"
b10100000 -"
b10100000 3"
b1010 D"
b1 *"
b1001000010000000011100000110000001010000010000000011000000100000000100001010 &"
b1011 ."
b101000001 %"
b11100000101000000000000000000001001 )"
b1010 C"
b1111 /"
b1010 @"
b1010 ?"
b11 $"
b1011 B"
1#"
#15000
0#"
#15500
b110 7"
b1010000000 ="
b1010 >"
b101 y
b101 1"
b101 :"
1x
1;"
b1001000000000000011100000000000001010000010000000011000000100000000100000000 8"
b1010100000 <"
b101 6"
b1001000010000000011100000110000001010000010000000011000000100000101100001010 '"
b101000011 ("
bx ,"
bx 2"
b0 -"
b0 3"
b1010 D"
b10 *"
b1001000010000000011100000110000001010000010000000011000000100000101100001010 &"
b1100 ."
b101000011 %"
b11000000100000000000000000001001000 )"
b1010 C"
b10000 /"
b1010 @"
b1010 ?"
b100 $"
b1100 B"
1#"
#16000
0#"
#16500
b1010 >"
b0 y
b0 1"
b0 :"
0x
0;"
b1010000000 <"
b110 6"
b1001000010000000011100000110000001010000010000000011000011000000101100001010 '"
b101000111 ("
b1010 D"
b11 *"
b1001000010000000011100000110000001010000010000000011000011000000101100001010 &"
b1101 ."
b101000111 %"
b10100000011000000000000011000110111 )"
b1010 C"
b10001 /"
b1010 @"
b1010 ?"
b101 $"
b1101 B"
1#"
#17000
0#"
#17500
b1001000000000000011100000000000001010000010000001101000000100000000100000000 9"
b1010001000 ="
b1010 >"
b1001000010000000011100000110000001010000010000001101000011000000101100001010 '"
bx00001101xxxxxxxxxxxxxxxxxxxxxxxx ,"
bx00001101xxxxxxxxxxxxxxxxxxxxxxxx 2"
b1000 -"
b1000 3"
b1010 D"
b100 *"
b1001000010000000011100000110000001010000010000001101000011000000101100001010 &"
b1110 ."
b101000111 %"
b10000000010000000000000010100100110 )"
b1010 C"
b10010 /"
b1010 @"
b1010 ?"
b1110 B"
1#"
#18000
0#"
#18500
b1010 >"
b1001000000000000011100000000000001010000010000001101000000100000000100000000 8"
b1010001000 <"
b1001000010000000011100000110000001010000111000001101000011000000101100001010 '"
b101010111 ("
bx ,"
bx 2"
b0 -"
b0 3"
b1010 D"
b101 *"
b1001000010000000011100000110000001010000111000001101000011000000101100001010 &"
b1111 ."
b101010111 %"
b1100000001000000010000010000010101 )"
b1010 C"
b10011 /"
b1010 @"
b1010 ?"
b1111 B"
1#"
#19000
0#"
#19500
b111 7"
b110 y
b110 1"
b110 :"
1x
1;"
b1001000000000000011100000110000001010000111000001101000000100000101100000000 9"
b1010011010 ="
b1010 >"
b1001000010000000011100000110000011110000111000001101000011000000101100001010 '"
b100100101 ("
bx00000110xxxxxxxx00001110xxxxxxxxxxxxxxxx00001011xxxxxxxx ,"
bx00000110xxxxxxxx00001110xxxxxxxxxxxxxxxx00001011xxxxxxxx 2"
b1010010 -"
b1010010 3"
b1010 D"
b110 *"
b1001000010000000011100000110000011110000111000001101000011000000101100001010 &"
b10000 ."
b100100101 %"
b1000000000001000000000001100000100 )"
b1010 C"
b10100 /"
b1010 @"
b1010 ?"
b10000 B"
1#"
#20000
0#"
#20500
b1000 7"
b1000011010 ="
b1010 >"
b111 y
b111 1"
b111 :"
1x
1;"
b1001000000000000011100000110000001010000111000001101000000100000101100000000 8"
b1010011010 <"
b111 6"
b1001000010000000011100010000000011110000111000001101000011000000101100001010 '"
b101100101 ("
bx ,"
bx 2"
b0 -"
b0 3"
b1010 D"
b111 *"
b1001000010000000011100010000000011110000111000001101000011000000101100001010 &"
b10001 ."
b101100101 %"
b100001000000100000000001000000011 )"
b1010 C"
b10101 /"
b1010 @"
b1010 ?"
b110 $"
b10001 B"
1#"
#21000
0#"
#21500
b1001 7"
b1001000010000000011100000110000011110000111000001101000000100000101100000000 9"
b1000111010 ="
b1010 >"
b1000 y
b1000 1"
b1000 :"
1x
1;"
b1000011010 <"
b1000 6"
b1001000010000001000100010000000011110000111000001101000011000000101100001010 '"
b11000101 ("
bx00001000xxxxxxxxxxxxxxxx00001111xxxxxxxxxxxxxxxxxxxxxxxxxxxxxxxxxxxxxxxx ,"
bx00001000xxxxxxxxxxxxxxxx00001111xxxxxxxxxxxxxxxxxxxxxxxxxxxxxxxxxxxxxxxx 2"
b100100000 -"
b100100000 3"
b1010 D"
b1000 *"
b1001000010000001000100010000000011110000111000001101000011000000101100001010 &"
b10010 ."
b11000101 %"
b100111000000000000000100000010 )"
b1010 C"
b10110 /"
b1010 @"
b1010 ?"
b111 $"
b10010 B"
1#"
#22000
0#"
#22500
b0 7"
b1001000100100000011100000110000011110000111000001101000011000000101100000000 9"
b100111110 ="
b1010 >"
b1001 y
b1001 1"
b1001 :"
1x
1;"
b1001000010000000011100000110000011110000111000001101000000100000101100000000 8"
b1000111010 <"
b1001 6"
b1001000100100001000100010000000011110000111000001101000011000000101100001010 '"
b11000001 ("
bx00010010xxxxxxxxxxxxxxxxxxxxxxxxxxxxxxxxxxxxxxxx00001100xxxxxxxxxxxxxxxx ,"
bx00010010xxxxxxxxxxxxxxxxxxxxxxxxxxxxxxxxxxxxxxxx00001100xxxxxxxxxxxxxxxx 2"
b100000100 -"
b100000100 3"
b1010 D"
b1001 *"
b1001000100100001000100010000000011110000111000001101000011000000101100001010 &"
b10011 ."
b11000001 %"
b10110000000000000000000000001 )"
b1010 C"
b10111 /"
b1010 @"
b1010 ?"
b1000 $"
b10011 B"
1#"
#23000
0#"
#23500
b1 7"
b1001000100100001000100000110000011110000111000001101000011000000101100001010 9"
b110111110 ="
b1010 >"
b1010 y
b1010 1"
b1010 :"
1x
1;"
b1001000100100000011100000110000011110000111000001101000011000000101100000000 8"
b100111110 <"
b0 6"
b10011000100100001000100010000000011110000111000001101000011000000101100001010 '"
b1001000000 ("
bx00010001xxxxxxxxxxxxxxxxxxxxxxxxxxxxxxxxxxxxxxxxxxxxxxxx00001010 ,"
bx00010001xxxxxxxxxxxxxxxxxxxxxxxxxxxxxxxxxxxxxxxxxxxxxxxx00001010 2"
b10000001 -"
b10000001 3"
b1010 D"
b0 *"
b10011000100100001000100010000000011110000111000001101000011000000101100001010 &"
b10100 ."
b1001000000 %"
b111000000000101000000000000000000000000 )"
b1010 C"
b11000 /"
b1010 @"
b1010 ?"
b1001 $"
b10100 B"
1#"
#24000
0#"
#24500
b10 7"
b1001000100100001000100000110000011110000111000001101000011000000101100010100 9"
b110111101 ="
b1010 >"
b1011 y
b1011 1"
b1011 :"
1x
1;"
b1001000100100001000100000110000011110000111000001101000011000000101100001010 8"
b110111110 <"
b1 6"
b10011000100100001000100010000000011110000111000001101000011000000101100010100 '"
bx00010100 ,"
bx00010100 2"
b1 -"
b1 3"
b1010 D"
b1 *"
b10011000100100001000100010000000011110000111000001101000011000000101100010100 &"
b10101 ."
b1001000000 %"
b110000000000100000000000000000000000000 )"
b1010 C"
b11001 /"
b1010 @"
b1010 ?"
b1010 $"
b10101 B"
1#"
#25000
0#"
#25500
b11 7"
b110111001 ="
b1010 >"
b1100 y
b1100 1"
b1100 :"
1x
1;"
b1001000100100001000100000110000011110000111000001101000011000000101100010100 8"
b110111101 <"
b10 6"
b10011000100100001000100010000000011110000111000001101000011000001010100010100 '"
b1001000010 ("
bx ,"
bx 2"
b0 -"
b0 3"
b1010 D"
b10 *"
b10011000100100001000100010000000011110000111000001101000011000001010100010100 &"
b10110 ."
b1001000010 %"
b101000000000011000000000000000001010000 )"
b1010 C"
b11010 /"
b1010 @"
b1010 ?"
b1011 $"
b10110 B"
1#"
#26000
0#"
#26500
b100 7"
b110110001 ="
b1010 >"
b1101 y
b1101 1"
b1101 :"
1x
1;"
b110111001 <"
b11 6"
b10011000100100001000100010000000011110000111000001101000101100001010100010100 '"
b1001000110 ("
b1010 D"
b11 *"
b10011000100100001000100010000000011110000111000001101000101100001010100010100 &"
b10111 ."
b1001000110 %"
b100000000000010000000000000010101000000 )"
b1010 C"
b11011 /"
b1010 @"
b1010 ?"
b1100 $"
b10111 B"
1#"
#27000
0#"
#27500
b101 7"
b110100001 ="
b1010 >"
b1110 y
b1110 1"
b1110 :"
1x
1;"
b110110001 <"
b100 6"
b10011000100100001000100010000000011110000111000010111000101100001010100010100 '"
b1001001110 ("
b1010 D"
b100 *"
b10011000100100001000100010000000011110000111000010111000101100001010100010100 &"
b11000 ."
b1001001110 %"
b11000000000001000000000011010000110000 )"
b1010 C"
b11100 /"
b1010 @"
b1010 ?"
b1101 $"
b11000 B"
1#"
#28000
0#"
#28500
b110 7"
b1001000100100001000100010000000011110000111000001101000011000000101100010100 9"
b111000001 ="
b1010 >"
b1111 y
b1111 1"
b1111 :"
1x
1;"
b110100001 <"
b101 6"
b10011000100100001000100010000000011110001100000010111000101100001010100010100 '"
b1000011110 ("
bx00010000xxxxxxxxxxxxxxxxxxxxxxxxxxxxxxxxxxxxxxxxxxxxxxxx ,"
bx00010000xxxxxxxxxxxxxxxxxxxxxxxxxxxxxxxxxxxxxxxxxxxxxxxx 2"
b1000000 -"
b1000000 3"
b1010 D"
b101 *"
b10011000100100001000100010000000011110001100000010111000101100001010100010100 &"
b11001 ."
b1000011110 %"
b10000000000000000010010010001100100000 )"
b1010 C"
b11101 /"
b1010 @"
b1010 ?"
b1110 $"
b11001 B"
1#"
#29000
0#"
#29500
b111 7"
b110000001 ="
b1010 >"
b10000 y
b10000 1"
b10000 :"
1x
1;"
b1001000100100001000100010000000011110000111000001101000011000000101100010100 8"
b111000001 <"
b110 6"
b10011000100100001000100010000000110010001100000010111000101100001010100010100 '"
b1000111110 ("
bx ,"
bx 2"
b0 -"
b0 3"
b1010 D"
b110 *"
b10011000100100001000100010000000110010001100000010111000101100001010100010100 &"
b11010 ."
b1000111110 %"
b1000000000000011010000001001000010000 )"
b1010 C"
b11110 /"
b1010 @"
b1010 ?"
b1111 $"
b11010 B"
1#"
#30000
0#"
#30500
b1000 7"
b10011000100100001000100010000000011110000111000010111000011000001010100010100 9"
b1100001011 ="
b1010 >"
b10001 y
b10001 1"
b10001 :"
1x
1;"
b110000001 <"
b111 6"
b10011000100100001000100011010000110010001100000010111000101100001010100010100 '"
b1110100 ("
b10011xxxxxxxxxxxxxxxxxxxxxxxxxxxxxxxxxxxxxxxx00010111xxxxxxxx00010101xxxxxxxx ,"
b10011xxxxxxxxxxxxxxxxxxxxxxxxxxxxxxxxxxxxxxxx00010111xxxxxxxx00010101xxxxxxxx 2"
b1000001010 -"
b1000001010 3"
b1010 D"
b111 *"
b10011000100100001000100011010000110010001100000010111000101100001010100010100 &"
b11011 ."
b1110100 %"
b111010101110000000100000000 )"
b1010 C"
b11111 /"
b1010 @"
b1010 ?"
b10000 $"
b11011 B"
1#"
#31000
0#"
#31500
b1001 7"
b10011000100100001000100010000000011110000111000010111000101100001010100010100 9"
b1000001111 ="
b1010 >"
b10010 y
b10010 1"
b10010 :"
1x
1;"
b10011000100100001000100010000000011110000111000010111000011000001010100010100 8"
b1100001011 <"
b1000 6"
b10011000100100001101100011010000110010001100000010111000101100001010100010100 '"
b11110000 ("
bx00010110xxxxxxxxxxxxxxxx ,"
bx00010110xxxxxxxxxxxxxxxx 2"
b100 -"
b100 3"
b1010 D"
b1000 *"
b10011000100100001101100011010000110010001100000010111000101100001010100010100 &"
b11100 ."
b11110000 %"
b10010110010001100000000000000000 )"
b1010 C"
b100000 /"
b1010 @"
b1010 ?"
b10001 $"
b11100 B"
1#"
#32000
0#"
#32500
b0 7"
b1111 ="
b1010 >"
b10011 y
b10011 1"
b10011 :"
1x
1;"
b10011000100100001000100010000000011110000111000010111000101100001010100010100 8"
b1000001111 <"
b1001 6"
bx ,"
bx 2"
b0 -"
b0 3"
b1010 D"
b10000101001101010000000000000000 )"
b1010 C"
b100001 /"
b1010 @"
b1010 ?"
b10010 $"
b11101 B"
1#"
#33000
0#"
#33500
b1 7"
b1110 ="
b1010 >"
b10100 y
b10100 1"
b10100 :"
1x
1;"
b1111 <"
b0 6"
b1010 D"
b1110100001001000000000000000000 )"
b1010 C"
b100010 /"
b1010 @"
b1010 ?"
b10011 $"
b11110 B"
1#"
#34000
0#"
#34500
b10 7"
b1100 ="
b1010 >"
b10101 y
b10101 1"
b10101 :"
1x
1;"
b1110 <"
b1 6"
b1010 D"
b1100011000100110000000000000000 )"
b1010 C"
b100011 /"
b1010 @"
b1010 ?"
b10100 $"
b11111 B"
1#"
#35000
0#"
#35500
b11 7"
b10011000100100001000100010000000110010000111000010111000101100001010100010100 9"
b101000 ="
b1010 >"
b10110 y
b10110 1"
b10110 :"
1x
1;"
b1100 <"
b10 6"
b10011000111000001101100011010000110010001100000010111000101100001010100010100 '"
b111010000 ("
bx00011001xxxxxxxxxxxxxxxxxxxxxxxxxxxxxxxxxxxxxxxx ,"
bx00011001xxxxxxxxxxxxxxxxxxxxxxxxxxxxxxxxxxxxxxxx 2"
b100000 -"
b100000 3"
b1010 D"
b1001 *"
b10011000111000001101100011010000110010001100000010111000101100001010100010100 &"
b11101 ."
b111010000 %"
b10101010010000000100000000000000000 )"
b1010 C"
b100100 /"
b1010 @"
b1010 ?"
b10101 $"
b100000 B"
1#"
#36000
0#"
#36500
b100 7"
b100000 ="
b1010 >"
b10111 y
b10111 1"
b10111 :"
1x
1;"
b10011000100100001000100010000000110010000111000010111000101100001010100010100 8"
b101000 <"
b11 6"
b11101000111000001101100011010000110010001100000010111000101100001010100010100 '"
b1111010000 ("
bx ,"
bx 2"
b0 -"
b0 3"
b1010 D"
b0 *"
b11101000111000001101100011010000110010001100000010111000101100001010100010100 &"
b11110 ."
b1111010000 %"
b10010001000001000000010000000000000000 )"
b1010 C"
b100101 /"
b1010 @"
b1010 ?"
b10110 $"
b100001 B"
1#"
#37000
0#"
#37500
b101 7"
b10011000100100001000100011010000110010001100000010111000101100001010100010100 9"
b1100000 ="
b1010 >"
b11000 y
b11000 1"
b11000 :"
1x
1;"
b100000 <"
b100 6"
b11101000111000001101100011010000110010001100000010111000101100001010101001111 '"
b1110000001 ("
bx00011010xxxxxxxx00011000xxxxxxxxxxxxxxxxxxxxxxxxxxxxxxxx ,"
bx00011010xxxxxxxx00011000xxxxxxxxxxxxxxxxxxxxxxxxxxxxxxxx 2"
b1010000 -"
b1010000 3"
b1010 D"
b1 *"
b11101000111000001101100011010000110010001100000010111000101100001010101001111 &"
b1110000001 %"
b1001100110000000000000000000000000001 )"
b1010 C"
b100110 /"
b1010 @"
b1010 ?"
b10111 $"
b100010 B"
1#"
#38000
0#"
#38500
b110 7"
b11101000100100001000100011010000110010001100000010111000101100001010101001111 9"
b1001000001 ="
b1010 >"
b11001 y
b11001 1"
b11001 :"
1x
1;"
b10011000100100001000100011010000110010001100000010111000101100001010100010100 8"
b1100000 <"
b101 6"
b11101000111000001101100011010000110010001100000010111000101100111111001001111 '"
b110000010 ("
b11101xxxxxxxxxxxxxxxxxxxxxxxxxxxxxxxxxxxxxxxxxxxxxxxxxxxxxxxxxxxxxxxx01001111 ,"
b11101xxxxxxxxxxxxxxxxxxxxxxxxxxxxxxxxxxxxxxxxxxxxxxxxxxxxxxxxxxxxxxxx01001111 2"
b1000000001 -"
b1000000001 3"
b1010 D"
b10 *"
b11101000111000001101100011010000110010001100000010111000101100111111001001111 &"
b110000010 %"
b1000100000000000000000000001010000 )"
b1010 C"
b100111 /"
b1010 @"
b1010 ?"
b11000 $"
b100011 B"
1#"
#39000
0#"
#39500
b111 7"
b1000000001 ="
b1010 >"
b11010 y
b11010 1"
b11010 :"
1x
1;"
b11101000100100001000100011010000110010001100000010111000101100001010101001111 8"
b1001000001 <"
b110 6"
bx ,"
bx 2"
b0 -"
b0 3"
b1010 D"
b100010000000000000000000001000000 )"
b1010 C"
b101000 /"
b1010 @"
b1010 ?"
b11001 $"
b100100 B"
1#"
#40000
0#"
#40500
b1000 7"
b11101000111000001101100011010000110010001100000010111000101100001010101001111 9"
b1100000001 ="
b1010 >"
b11011 y
b11011 1"
b11011 :"
1x
1;"
b1000000001 <"
b111 6"
b10 ("
bx0001110000011011xxxxxxxxxxxxxxxxxxxxxxxxxxxxxxxxxxxxxxxxxxxxxxxxxxxxxxxx ,"
bx0001110000011011xxxxxxxxxxxxxxxxxxxxxxxxxxxxxxxxxxxxxxxxxxxxxxxxxxxxxxxx 2"
b110000000 -"
b110000000 3"
b10 %"
b1010 D"
b110000 )"
b1010 C"
b101001 /"
b1010 @"
b1010 ?"
b11010 $"
b100101 B"
1#"
#41000
0#"
#41500
b1001 7"
b1000000001 ="
b1010 >"
b11100 y
b11100 1"
b11100 :"
1x
1;"
b11101000111000001101100011010000110010001100000010111000101100001010101001111 8"
b1100000001 <"
b1000 6"
b11101000111000001101100011010000110010001100000010111010011000111111001001111 '"
b110 ("
bx ,"
bx 2"
b0 -"
b0 3"
b1010 D"
b11 *"
b11101000111000001101100011010000110010001100000010111010011000111111001001111 &"
b110 %"
b100000100000 )"
b1010 C"
b101010 /"
b1010 @"
b1010 ?"
b11011 $"
b100110 B"
1#"
#42000
0#"
